module gitlab.com/pages/hugo

go 1.20

require (
	github.com/FortAwesome/Font-Awesome v0.0.0-20210316185733-d79d85c3fad8 // indirect
	github.com/aFarkas/lazysizes v0.0.0-20210517092641-1523a4ff4579 // indirect
	github.com/hugo-mods/icons v0.0.0-20220508080705-d938a1900b1c // indirect
	github.com/hugo-mods/lazyimg v0.0.0-20220925161121-72183e14a364 // indirect
	github.com/hugo-mods/release-notify v0.0.0-20211204191115-572031cb0d70 // indirect
	github.com/kdevo/osprey-delight/v5 v5.0.6 // indirect
	github.com/theNewDynamic/gohugo-theme-ananke v0.0.0-20240503174335-33fbda0e9d3e // indirect
)
